<?xml version="1.0" encoding="utf-8"?>
<!-- Generator: Adobe Illustrator 25.2.3, SVG Export Plug-In . SVG Version: 6.00 Build 0)  -->
<svg version="1.1" id="Layer_2_xA0_Image_1_" xmlns="http://www.w3.org/2000/svg" xmlns:xlink="http://www.w3.org/1999/xlink"
	 x="0px" y="0px" viewBox="0 0 1437 1437" style="enable-background:new 0 0 1437 1437;" xml:space="preserve">
<style type="text/css">
	.st0{fill:#FEFEFE;}
	.st1{fill:#090909;}
	.st2{fill:#393939;}
	.st3{fill:#525252;}
	.st4{fill:#FDFDFD;}
</style>
<g>
	<path class="st0" d="M718.4,1257.8c-4.3,0.1-7.7-1.4-10.8-3.8c-46.7-36.7-93.3-73.4-140-110.1c-55.4-43.6-110.9-87.1-166.3-130.7
		c-50.6-39.8-101.2-79.6-151.7-119.3c-53.7-42.2-107.4-84.5-161.2-126.7C69.2,752.1,50,737,30.8,721.9c-4-3.2-3.9-5.5,0.1-8.6
		c69.7-54.5,139.4-109,209.1-163.4C298.6,504,357.3,458.1,416,412.3c54.2-42.4,108.4-84.8,162.7-127.2
		C624.8,249,670.9,213,717,176.8c2.5-2,4.1-1.6,6.4,0.2c94.9,74.7,189.8,149.3,284.7,223.9c85.8,67.4,171.5,134.8,257.3,202.2
		c46.8,36.8,93.6,73.6,140.4,110.4c6.1,4.8,6.1,6.3,0,11.1c-63.8,49.9-127.6,99.7-191.4,149.6c-71,55.5-141.9,111.1-212.9,166.6
		c-67.9,53-135.8,106-203.6,159.1c-22.1,17.3-44.3,34.6-66.4,52C727.5,1254.9,723.6,1258.2,718.4,1257.8z"/>
	<path d="M718,188.3c2.2-2.9,3.7-0.5,5.3,0.7c37.4,29.4,74.9,58.8,112.3,88.3c142.7,112.2,285.3,224.3,428,336.5
		c43.5,34.2,86.9,68.4,130.4,102.4c3,2.4,3.4,3.3,0.1,5.9c-75,58.5-149.8,117-224.7,175.6c-36.3,28.4-72.7,56.8-109,85.2
		c-1.4,1.1-3,2.1-4.5,3.1c-3-5.5-1.2-11.2-1.2-16.9c1.3-11.5,0.3-23.1,0.6-34.6c0.1-2.8-0.1-5.6,0-8.4c-0.4-2.1-0.9-4.2-0.5-6.4
		c1-13.2,0.4-26.4,0.3-39.6c-0.3-1-0.5-2.1-0.6-3.2c-0.2-2-1.5-3.2-3-4.4c-19.6-15.5-39.3-30.7-58.8-46.4c-2.6-2.1-4.6-1.7-7.1,0.2
		c-20.3,16.2-41,31.9-61.3,48.1c-2.5,2-5,3.9-7.6,5.7c-1.5,1-3.2,2.2-4.7,0c-1.1-2.7-0.8-5.6-0.8-8.4c-0.1-29.4,0.1-58.9-0.1-88.3
		c-3.4-5.4-8.9-8.4-13.7-12.1c-16.1-12.7-32.2-25.3-48.2-38c-3.1-2.5-5.3-2.4-8.2,0c-16.5,13-33,25.9-49.6,38.7
		c-1.7,1.3-3.6,4.1-6.3,1.1c-1.2-2.9-0.8-5.9-0.8-8.9c-0.1-37.3,0.1-74.5-0.1-111.7c-3.5-5.4-9.2-8.5-14.1-12.4
		c-16.7-13.2-33.3-26.4-50.1-39.5c-1.6-1.2-3.1-2.5-3.4-4.7c-0.5-2.8-0.3-5.7-0.3-8.5c0-129.7,0-259.3,0-389
		C716.4,195,715.8,191.4,718,188.3z"/>
	<path class="st1" d="M718,188.3c0,135.3,0,270.7,0,406c0,1.3,0,2.7,0.1,4c0.2,2.5-1.9,3.3-3.4,4.5c-25.9,20.3-51.9,40.6-77.9,60.9
		c-40.4,31.6-80.8,63.2-121.2,94.7c-33,25.8-66.1,51.7-99.2,77.5c-12.9,10-25.7,20.1-38.5,30.2c-1.4,1.1-3.2,2-3.4,4.1
		c0,1.3-0.1,2.7,0,4c0.3,12.8,0.1,25.6,0.1,38.4c-0.3,1.6,0,3.2-0.1,4.8c0.2,14.8,0.1,29.6,0.1,44.5c-0.2,3.9,0.3,7.8-0.1,11.7
		c-0.2,1.8,0.2,4.1-2.6,4.5c-30-23.5-60-47-90-70.6c-78.7-61.8-157.3-123.7-236-185.5c-5.5-4.3-5.5-4.3-0.1-8.5
		c184-143.9,368.1-287.7,552.1-431.6c39.5-30.9,79-61.7,118.4-92.6C716.8,188.9,717.4,188.6,718,188.3z"/>
	<path class="st2" d="M373.1,873c0.1-1.5,0.2-2.9,0.2-4.4c1.9-0.6,3.1,0.7,4.4,1.7c39.1,30.5,78,61.4,117,92
		c36.1,28.4,72.3,56.8,108.4,85.2c37.4,29.4,74.9,58.9,112.3,88.3c1.5,1.1,2.8,2.4,3.7,4c0.4,1,0.3,2,0.3,2.9
		c0.1,31-0.2,62,0.2,93.1c0,1.7,0,3.3-0.1,5c-0.2,3.8-1.9,5.5-5.8,4.3c-3.2-0.2-5.4-2.4-7.8-4.2c-61.5-48.4-123-96.7-184.6-145.1
		c-49.5-38.9-99-77.8-148.5-116.7c-0.4-0.3-0.6-0.7-1-1.1c2.5-5.2,0.5-10.8,1.2-16.2c4.1,0.1,6.2,3.5,9.1,5.5
		c2.3,1.6,3.5,1.7,3.5-1.6c0-11.1,0-22.2,0-33.3c0-2.9-1.5-4.9-3.6-6.7c-3.1-2.6-7-4.5-8.8-8.6c-0.1-1.5-0.1-2.9-0.2-4.4
		c2.9-0.2,4.5,2,6.4,3.4c23.5,18.3,46.9,36.9,70.3,55.3c34.1,26.8,68.1,53.5,102.2,80.3c37.7,29.7,75.4,59.3,113.1,89
		c16.2,12.8,32.5,25.5,48.7,38.3c1.6-0.7,1-2.1,1-3.1c0-9.3-0.1-18.7,0.1-28c0.1-3.9-1.3-6.6-4.3-9c-32-25.1-63.9-50.2-95.9-75.3
		c-37.6-29.5-75.1-59.1-112.7-88.7c-36.3-28.5-72.6-57-108.8-85.6C386.3,884.1,379,879.3,373.1,873z"/>
	<path class="st3" d="M713.7,1245.1c3.5,0.3,4.4-1.4,4.4-4.8c0-33,0.1-65.9,0.3-98.9c0-1.3-1-1.6-1.3-2.5c14.6-11.6,29.3-23,44-34.5
		c40.5-31.7,81-63.3,121.5-95.1c32.9-25.8,65.8-51.5,98.8-77.2c23-17.9,45.8-35.9,68.9-53.7c1.7-1.3,3.1-3.2,5.6-2.6
		c0.1,1.1,0.1,2.3,0.2,3.4c-0.2,3-2.9,4-4.7,5.4c-19.2,14.9-38.3,30-57.5,45c-43.3,33.8-86.6,67.7-129.9,101.6
		c-36.4,28.4-72.7,56.9-109.1,85.2c-10,7.8-20,15.6-29.9,23.4c-2.1,1.6-3.6,3.4-3.6,6.2c-0.1,11,0,22,0,33.5
		c5.3-2.8,9.3-6.6,13.5-9.9c71.4-56,143.1-111.8,214.6-167.8c34-26.6,67.8-53.3,102.1-79.6c1.3-1,2.4-3,4.7-2.1
		c-0.5,1.8,0.4,3.4,0.8,5.1c-10.2,8.8-21,16.9-31.7,25.2c-43.5,34.1-87.1,68.1-130.7,102.2c-38.2,29.9-76.4,59.7-114.6,89.5
		c-18.4,14.4-36.7,28.8-55.1,43.1c-1.9,1.5-3.5,3.1-3.5,5.7c-0.1,12.3,0,24.6,0,37.9c5.5-3.6,9.9-7.4,14.3-10.9
		c46.9-36.6,93.7-73.2,140.6-109.9c48.5-38,97.1-75.9,145.6-113.9c10-7.8,19.8-15.7,30-23.3c1.2-0.9,2.2-2.7,4.3-1.7
		c0,5.6,0,11.2-0.1,16.9c-17.2,13.6-34.4,27.3-51.6,40.8c-91.1,71.2-182.2,142.4-273.3,213.7
		C725.8,1244.4,720.6,1247.6,713.7,1245.1z"/>
	<path class="st0" d="M1055.8,875.8c-19.7,15.3-39.5,30.5-59.1,45.9c-91.8,71.7-183.6,143.5-275.3,215.2c-1.3,1-2.4,2.4-4.4,1.9
		c-26.8-21.1-53.5-42.3-80.3-63.4c-87.2-68.6-174.5-137.2-261.8-205.8c-0.5-0.4-1.1-0.7-1.7-1.1c10.8-9.6,22.5-18.1,33.9-27
		C510.1,761.1,613,680.7,715.9,600.3c0.8-0.6,1.4-1.3,2.1-2c6.7,3.5,12,8.8,17.9,13.3c16.4,12.7,32.7,25.6,49.1,38.4
		c1.1,2.8-1.2,3.8-2.8,5.1c-13.7,11.1-27.8,21.8-41.7,32.7c-43.3,33.9-86.6,67.7-129.9,101.6c-12.6,9.9-25.2,19.7-37.8,29.5
		c-5.3,4.1-5.4,4.3,0.1,8.5c22.2,17.3,44.3,34.8,66.5,52.1c5.4,4.2,5.4,4.3,10.9,0c16.6-12.9,33.1-25.8,49.6-38.8
		c27.6-21.6,55.1-43.1,82.7-64.6c1.4-1.1,2.8-1.7,4.4-2.1c18.4-14.3,36.8-28.6,55.1-43c2.4-1.9,3.9-1.9,6.3,0
		c21.1,16.8,42.3,33.4,63.5,50.1c0.6,2.6-1.6,3.4-3.1,4.6c-27.8,22-55.8,43.8-83.8,65.6c-35.7,27.9-71.4,55.7-107,83.7
		c-4.1,3.3-4.1,3.3,0.2,6.7c18.3,14.2,36.5,28.5,54.5,42.9c2.6,2.1,4.4,2.1,7,0.1c31.2-24.7,62.7-49,94-73.7
		c11.5-9.1,23.2-17.9,34.6-27.1c1.7-1.4,3.4-2.6,5.6-2.9c23.9-18.6,47.7-37.2,71.5-55.9c2.9-2.3,4.6-2.7,7.8-0.2
		c20,16,40.2,31.8,60.3,47.6C1054.6,873.3,1056.5,873.7,1055.8,875.8z"/>
	<path class="st3" d="M787,774c-46.5,36.4-93,72.8-139.5,109.2c-2.1,1.7-3.4,1.6-5.5,0c-24.5-19.4-49.1-38.8-73.8-58
		c-3.5-2.7-0.9-3.5,0.8-4.9c31.5-24.6,62.9-49.2,94.4-73.8c39.6-31,79.2-61.9,118.8-92.9c1.2-1,3.1-1.5,2.8-3.7
		c1.9,1.2,0.8,3,0.8,4.5c0.1,38.1,0,76.3,0.1,114.4C786,770.6,785.1,772.6,787,774z"/>
	<path class="st3" d="M914,881c-40,31.3-79.9,62.6-119.9,93.9c-5,3.9-10.1,7.7-14.9,11.7c-2,1.7-3.4,1.8-5.5,0.1
		c-20.4-16.1-40.8-32.2-61.7-48.6c7.5-5.9,14.8-11.6,22.1-17.3c58.4-45.6,116.8-91.3,175.2-136.9c1-0.8,2.3-1.4,2.7-2.8
		c1.7,1.7,0.9,3.8,0.9,5.7c0.1,29.6,0,59.2,0.1,88.8C912.8,877.3,911.9,879.5,914,881z"/>
	<path class="st0" d="M1056,969.1c-39,30.4-78,60.8-116.9,91.3c-72,56.3-144,112.6-216,168.9c-0.7,0.6-1.6,1.1-3,2.1
		c0-14.7,0-28.6,0-42.5c0-2.1,1.6-2.8,2.8-3.8c56.4-44.1,112.8-88.2,169.2-132.3c53-41.4,106-82.9,159-124.3
		c1.8-1.4,3.1-3.6,5.8-3.4c0,12.9,0,25.8,0,38.7C1056.8,965.6,1057.4,967.5,1056,969.1z"/>
	<path class="st0" d="M1056,920.1c-40.4,31.5-80.8,63-121.2,94.6c-70.6,55.1-141.1,110.3-211.6,165.5c-0.8,0.6-1.6,1.1-3.2,2.2
		c0-9.7,0.7-18.9-0.2-27.8c-0.9-9.1,2.5-14.5,9.7-20.1c107.7-83.8,215.2-168,322.7-252c1.3-1,2.5-2.1,3.8-3.1
		c1.5,0.9,0.8,2.4,0.8,3.6c0.1,11,0.1,22,0,32.9C1056.8,917.3,1057.2,918.8,1056,920.1z"/>
	<path class="st0" d="M373.1,873c7.7,4.3,14.1,10.4,21,15.8c106.1,83.3,212.1,166.7,318.1,250c2.7,2.1,4,4.3,3.9,7.9
		c-0.2,11.6-0.1,23.2-0.1,35.8c-114.8-90.2-228.8-179.8-342.9-269.5C373.1,899.6,373.1,886.3,373.1,873z"/>
	<path class="st4" d="M373.3,917.3c10.5,5.5,15.2,13.6,13.6,26c-1.2,9.1-0.3,18.5-0.3,27.8c0,0.1-0.2,0.2-0.7,0.6
		c-4.2-3.2-8.4-6.5-12.6-9.8C373.1,947,373.2,932.2,373.3,917.3z"/>
	<path class="st0" d="M586.8,1085.5c16.4,12.9,31.9,25.1,47.5,37.3c26.1,20.5,52.1,41,78.2,61.4c2.6,2,3.7,4.1,3.7,7.5
		c-0.2,12.9-0.1,25.9-0.1,39.8c-9.5-7.5-18.4-14.4-27.2-21.3c-32.6-25.6-65.2-51.3-97.8-76.8c-3-2.3-4.4-4.7-4.3-8.7
		C586.9,1111.9,586.8,1099.3,586.8,1085.5z"/>
	<path class="st0" d="M476.7,998.6c4.3,3.4,8.5,6.8,12.8,10.1c0.8,0.6,1.4,1.4,1.5,2.5c0.2,7.3,1,14.7-1.3,21.8
		c-2.7,8.3-10.6,11.2-17.9,6.4c-18.7-12.1-32.3-28-36.4-50.7c-1.3-7.3-2.2-14.7-0.6-23c4.7,3.7,8.9,7.1,13.2,10.3
		c1.8,1.3,1.1,3,1,4.5c-0.6,10.1,0.2,19.9,4.9,29.1c2.6,5,5.9,9.3,10.6,12.3c5.5,3.5,9.6,1.9,11.1-4.4c1.2-5.2,1.6-10.5,0.7-15.9
		C476.2,1000.7,475.7,999.8,476.7,998.6z"/>
	<path class="st0" d="M409.7,965.7c0-6.2,0-12.4,0-19.7c4.6,3.6,8.5,6.6,12.4,9.6c0.9,0.7,1,1.7,1,2.7c0,14,0,27.9,0,42.8
		c-5.4-4.2-10.2-8-15-11.7c-1.2-0.9-1.5-2.2-1.9-3.4c-5.7-18-11.4-36.1-17-54.1c-0.1-0.4,0-1,0-1.7c6.5,4,11.9,8.2,13.4,16.2
		c1.3,6.6,3.9,12.9,6,19.4C409,965.7,409.4,965.7,409.7,965.7z"/>
	<path class="st0" d="M518.1,1031.9c5.3,3.6,10.5,5.5,12.2,11.4c2.5,8.2,5.2,16.3,8.4,24.4c0-6.4,0-12.7,0-20.3
		c4.8,3.8,8.9,6.9,12.9,10.1c0.4,0.3,0.6,1.2,0.6,1.8c0,14.1,0,28.1,0,43.1c-8.7-6.6-16.8-11.7-19.5-22.8
		C529,1064,523.4,1048.7,518.1,1031.9z"/>
	<path class="st0" d="M581,1125.2c-4.7-3.7-8.7-6.8-12.7-9.9c-1.2-0.9-1.5-2.1-1.5-3.5c0-13.8,0-27.6,0-42.4
		c4.9,3.8,9.1,7.1,13.4,10.4c0.8,0.6,0.8,1.4,0.8,2.2C581,1096.2,581,1110.3,581,1125.2z"/>
	<path class="st4" d="M516,1073.2c-11.4-4.6-15-12.6-13.7-24.2c1-9.5,0.2-19.2,0.2-30.3c5,4,9.1,7.1,13,10.4
		c0.5,0.4,0.5,1.5,0.5,2.3C516.1,1045.4,516,1059.3,516,1073.2z"/>
</g>
</svg>
