{
    "env": [
        

    	{

    		"OPENCV_IO_ENABLE_OPENEXR": 1
    	},
        {

            "ASSET_HANDLER_ANCHOR": "../TESTING/HOU_Asset_Handler_1214_PEP8_ALL_OS"
        },
        {

            "HOUDINI_UI_QUEUE_SIZE": 1000000
        },
       


        {
            "HOUDINI_PATH": {
                "method": "append", 
                "value": [
                    {
                        "houdini_os == 'windows'": "$ASSET_HANDLER_ANCHOR"
                    }, 
                    {
                        "houdini_os == 'linux'": "$ASSET_HANDLER_ANCHOR"
                    },
                    {
                        "houdini_os == 'macOS'": "$ASSET_HANDLER_ANCHOR"
                    }
                ]
            }
        }, 
        {
            "HOUDINI_OTLSCAN_PATH": {
                "method": "append", 
                "value": [
                    {
                        "houdini_os == 'windows'": "$ASSET_HANDLER_ANCHOR/otls"
                    }, 
                    {
                        "houdini_os == 'linux'":  "$ASSET_HANDLER_ANCHOR/otls"
                    } ,
                    {
                        "houdini_os == 'macOS'":  "$ASSET_HANDLER_ANCHOR/otls"
                    }
                ]
            }
        }, 

        {
            "HOUDINI_TOOLBAR_PATH": {
                "method": "append", 
                "value": [
                    {
                        "houdini_os == 'windows'": "$ASSET_HANDLER_ANCHOR/toolbar"
                    }, 
                    {
                        "houdini_os == 'linux'": "$ASSET_HANDLER_ANCHOR/toolbar"
                    },
                    {
                        "houdini_os == 'macOS'": "$ASSET_HANDLER_ANCHOR/toolbar"
                    }
                ]
            }
        },
        {
            "HOUDINI_PYTHON_PANEL_PATH": {
                "method": "append", 
                "value": [
                    {
                        "houdini_os == 'windows'": "$ASSET_HANDLER_ANCHOR/python_panels"
                    }, 
                    {
                        "houdini_os == 'linux'": "$ASSET_HANDLER_ANCHOR/python_panels"
                    },
                    {
                        "houdini_os == 'macOS'": "$ASSET_HANDLER_ANCHOR/python_panels"
                    }
                ]
            }
        }, 
        {
            "HOUDINI_PATH": {
                "method": "append", 
                "value": [
                    {
                        "houdini_os == 'windows'": "$ASSET_HANDLER_ANCHOR/python_panels"
                    }, 
                    {
                        "houdini_os == 'linux'": "$ASSET_HANDLER_ANCHOR/python_panels"
                    },
                    {
                        "houdini_os == 'macOS'": "$ASSET_HANDLER_ANCHOR/python_panels"
                    }
                ]
            }
        },
        {
                "HOUDINI_SCRIPT_PATH": {
                "method": "append",
                "value": [
                    {
                        "houdini_os == 'windows'": "$ASSET_HANDLER_ANCHOR/scripts"
                    },
                    {
                        "houdini_os == 'linux'": "$ASSET_HANDLER_ANCHOR/scripts"
                    },
                    {
                        "houdini_os == 'linux'": "$ASSET_HANDLER_ANCHOR/scripts"
                    }
                ]
            }
        }
    ]
}